%YAML 1.1
%TAG !u! tag:unity3d.com,2011:
--- !u!114 &11400000
MonoBehaviour:
  m_ObjectHideFlags: 0
  m_CorrespondingSourceObject: {fileID: 0}
  m_PrefabInstance: {fileID: 0}
  m_PrefabAsset: {fileID: 0}
  m_GameObject: {fileID: 0}
  m_Enabled: 1
  m_EditorHideFlags: 0
  m_Script: {fileID: 11500000, guid: fd8e2dec4cc3c134e9d18a01df84de4f, type: 3}
  m_Name: PrefabDataBase
  m_EditorClassIdentifier: 
  CardUI: {fileID: 875978127541124630, guid: cc3c6a9755f9adc4fbbfb94de91a546d, type: 3}
