%YAML 1.1
%TAG !u! tag:unity3d.com,2011:
--- !u!114 &11400000
MonoBehaviour:
  m_ObjectHideFlags: 0
  m_CorrespondingSourceObject: {fileID: 0}
  m_PrefabInstance: {fileID: 0}
  m_PrefabAsset: {fileID: 0}
  m_GameObject: {fileID: 0}
  m_Enabled: 1
  m_EditorHideFlags: 0
  m_Script: {fileID: 11500000, guid: 8c0cf821637bd534c81e861909fba902, type: 3}
  m_Name: SpriteDataBase
  m_EditorClassIdentifier: 
  CardIcons:
  - {fileID: 21300000, guid: 1c78fd165bd234e4b80a3b23200b54b6, type: 3}
  - {fileID: 21300000, guid: 59c824041f1f72e4fb5f499a3b8b5baf, type: 3}
  - {fileID: 21300000, guid: 90d381093f765f2408178c90b7bb2ede, type: 3}
  - {fileID: 21300000, guid: ee14719ab68988c48a7fd0672e470d60, type: 3}
  - {fileID: 21300000, guid: 214de23759620e2499272eef0e931d3c, type: 3}
  - {fileID: 21300000, guid: 5f5ea0cdc78030c448d80739a6199709, type: 3}
  - {fileID: 21300000, guid: 54f045ce95ec5e8408e2db6f0be7df36, type: 3}
  - {fileID: 21300000, guid: 831f4c547a20a8348aab401e844bce52, type: 3}
  - {fileID: 21300000, guid: d72f6480a4dbac447b2046ca3a14fa02, type: 3}
  - {fileID: 21300000, guid: b13de0122e0ea0142b9be3b27dad18d0, type: 3}
  - {fileID: 21300000, guid: 39349959cce326c44916330bb3a80677, type: 3}
  - {fileID: 21300000, guid: 22291c19322f1384b85513cdd9dd4090, type: 3}
  - {fileID: 21300000, guid: 150ca16b77156b94aa13150c9a1149a4, type: 3}
  - {fileID: 21300000, guid: 30e916790e4f56849a327dc79778b06f, type: 3}
  - {fileID: 21300000, guid: 80fc53bdfcc01ae42a5856f28828fe18, type: 3}
  - {fileID: 21300000, guid: 13466448b7f3dc348a8a65bfb008cdb3, type: 3}
  - {fileID: 21300000, guid: 5e4cd0199ecaf134e8dd9b143a962dd3, type: 3}
  - {fileID: 21300000, guid: f312b38e32ec6e34fb2401217e5e7af5, type: 3}
  - {fileID: 21300000, guid: 5a5d9a13c396afc48bea3f49d3f51b00, type: 3}
  - {fileID: 21300000, guid: f2ef0d0e278a90747bc886f58c329c66, type: 3}
  - {fileID: 21300000, guid: 304b1df67d7219e42a9dadf1bb1ad6d6, type: 3}
  - {fileID: 21300000, guid: 75e252a46f2e82443aba47868580ed56, type: 3}
  - {fileID: 21300000, guid: 2db2c0b0d254db246815ac7056947815, type: 3}
  - {fileID: 21300000, guid: 22733ee693f74d146b1b2cfb358f9728, type: 3}
  - {fileID: 21300000, guid: 5b49e5601e7252249b2b8e92be69f63d, type: 3}
  - {fileID: 21300000, guid: f14536beb133b85409107fb6f1a027bf, type: 3}
  - {fileID: 21300000, guid: 65b12a5ac62777a44afef74687f6676f, type: 3}
  - {fileID: 21300000, guid: 547a66ae93091cc4abaf755088355a3a, type: 3}
  - {fileID: 21300000, guid: 4f35f1103e7f6e54595864385bc9b695, type: 3}
  - {fileID: 21300000, guid: b763ba9316e2f8e4d8a7ae6d834d8c9a, type: 3}
  HeroIcons:
  - {fileID: 21300000, guid: 50d0af9e8e58f27498b6be0319094002, type: 3}
