%YAML 1.1
%TAG !u! tag:unity3d.com,2011:
--- !u!114 &11400000
MonoBehaviour:
  m_ObjectHideFlags: 0
  m_CorrespondingSourceObject: {fileID: 0}
  m_PrefabInstance: {fileID: 0}
  m_PrefabAsset: {fileID: 0}
  m_GameObject: {fileID: 0}
  m_Enabled: 1
  m_EditorHideFlags: 0
  m_Script: {fileID: 11500000, guid: 0d8696338671a9b42b9fdb265b92bd65, type: 3}
  m_Name: SettingsData
  m_EditorClassIdentifier: 
  Resolution: {x: 1920, y: 1080}
  MusicVolume: 1
  SoundVolume: 1
  MusicMute: 0
  SoundMute: 0
  Language: 0
